0.4167
0.0894
0.4590
0.1884
0.1333
0.0000
0.3370
0.2941
0.0357
0.3576
0.4444
0.2308
0.1250
0.4571
0.6571
0.4747
0.1640
0.4262
0.2308
0.2470
0.0000
0.1837
0.4848
0.3725
0.2750
0.0392
0.2821
0.0306
0.0625
0.2857
0.0714
0.5455
0.0753
0.2157
0.3023
0.0526
0.1176
0.0784
0.0928
0.1045
0.2079
0.4476
0.1127
0.0588
0.2160
0.3051
0.4444
0.0828
0.2157
0.4240
0.2391
