0.5208
0.0772
0.4262
0.2853
0.2444
0.0000
0.3926
0.3137
0.0714
0.3576
0.4444
0.2051
0.1250
0.5143
0.6857
0.4141
0.2011
0.4098
0.3077
0.2292
0.1176
0.3265
0.4545
0.3775
0.3250
0.0490
0.3077
0.1122
0.1250
0.2857
0.0714
0.5909
0.0890
0.2549
0.2442
0.0526
0.1647
0.3529
0.0412
0.2313
0.3202
0.4476
0.0986
0.1176
0.2207
0.3220
0.3704
0.2069
0.1667
0.4560
0.2705
