0.4381
0.0272
0.3074
0.1019
0.0807
0.0105
0.2955
0.2114
0.0579
0.4318
0.2837
0.0956
0.0280
0.5497
0.7318
0.1627
0.1002
0.4231
0.2571
0.0765
0.0590
0.2005
0.3834
0.2933
0.2624
0.0067
0.1594
0.0299
0.2195
0.1220
0.0484
0.4490
0.0232
0.2166
0.1299
0.0118
0.1257
0.1284
0.0017
0.1186
0.4116
0.1272
0.0452
0.0593
0.1086
0.3406
0.1326
0.0959
0.0198
0.3811
0.1876
