0.3805
0.0000
0.2238
0.0080
0.0716
0.0060
0.0000
0.2865
0.0325
0.1742
0.2827
0.0858
0.0546
0.5145
0.6599
0.1596
0.0498
0.3362
0.1608
0.0001
0.0141
0.1843
0.0050
0.1847
0.0817
0.0004
0.1814
0.0000
0.0514
0.1467
0.0360
0.0345
0.0215
0.0002
0.1614
0.0133
0.1174
0.2232
0.0134
0.1628
0.0000
0.0165
0.0271
0.0025
0.0065
0.2988
0.3290
0.0062
0.0591
0.3582
0.1245
