0.5191
0.0225
0.2330
0.1549
0.1309
0.0107
0.3028
0.3001
0.0533
0.2184
0.3073
0.1129
0.0447
0.5528
0.7204
0.3193
0.1184
0.4067
0.2761
0.1190
0.0569
0.2499
0.3874
0.2370
0.2617
0.0099
0.2967
0.0380
0.0796
0.1612
0.0575
0.5975
0.0261
0.2411
0.2286
0.0221
0.1474
0.2458
0.0150
0.1956
0.2839
0.4340
0.0473
0.0353
0.1295
0.3037
0.3068
0.1010
0.0772
0.4163
0.2123
