0.4163
0.0370
0.2163
0.0729
0.0768
0.0105
0.2688
0.2398
0.0162
0.2184
0.3065
0.0729
0.0432
0.4758
0.6834
0.3676
0.0774
0.4267
0.2703
0.0922
0.0021
0.1297
0.3765
0.2283
0.1814
0.0165
0.3106
0.0048
0.0704
0.1903
0.0301
0.5194
0.0237
0.1848
0.2685
0.0325
0.1154
0.0197
0.0371
0.0844
0.0931
0.4517
0.0588
0.0092
0.1061
0.2815
0.4064
0.0127
0.1010
0.3710
0.1821
